# Location|Description|Rules
Night Guard Bastion|When you arrive you are met by a guard| If you have Wits 4 or more then you may convince him to talk with you. Once you are inside you may look at the top 5 cards of the exploration deck.
Library of Cale||
The Resting Grove||No combat may be initiated in the Resting Grove. Items and spells may not be used on any Hero or Character without consent.
The Abandoned Swamp||Each turn you spend in the Abandoned Swamp, your Nemesis must select one displayed item of yours to be destroyed.
Haunted Valley||Anyone killed in the Haunted Valley returns as a ghast. They have identical stats to what they had in life, and retain one item chosen by the Nemesis. The Hunted Valley always produces a single ghoul with stats 1/1/0 whenever a Character enters within 1 hex.  The ghoul appears on the same Hex as the Character.
The Revelation Pool||Anyone Standing on the Revelation Pool may Cast Fate level 1 for free.  If you have Fate 1 you may cast Fate 2 for free.
The Squalid Town||Any Character in the squalid town who enters combat loses a visible item every time they lose a round of combat. Their Nemesis selects the item.
The Catacombs|| Anyone entering the catacombs immediately encounters a ghast with stats 3/2/1.  If they defeat the ghast, they can teleport instantly to the Red location. If the Catacombs are the Red location, they can teleport to the Green location.
